{
    "name": "Gameready.IAP.Editor",
    "rootNamespace": "",
    "references": [
        "GUID:61de97a073494bde88e0ef1802d0f1eb",
        "GUID:4020685eee9d4ea3bce7ecf4105f87e0",
        "GUID:aac0f52efeeb45e783d8550c952d72ef",
        "GUID:d3d32e1805fea492ea244e08a861f082",
        "GUID:610452fb6772744e89eb7722b3435325"
    ],
    "includePlatforms": [
        "Editor"
    ],
    "excludePlatforms": [],
    "allowUnsafeCode": false,
    "overrideReferences": false,
    "precompiledReferences": [],
    "autoReferenced": true,
    "defineConstraints": [],
    "versionDefines": [],
    "noEngineReferences": false
}